<svg xmlns="http://www.w3.org/2000/svg" width="480pt" height="290pt" viewBox="0 0 480 290" version="1.1" xmlns:xlink="http://www.w3.org/1999/xlink">
  <g id="surface2" transform="matrix(2.1050196286191443,0,0,2.1050196286191443,-303.7000838123588,-72.92204137639092)" data-size="224.0234375 126.5634880065918" data-bboxpos="147.2265625 41.0788459777832" data-center="259 104" data-pivot="259 104">
    <path style="stroke:none;fill-rule:evenodd;fill:rgb(40.000000%,64.705882%,57.647059%);fill-opacity:1" d="M 288.449219 103.601562 C 287.515625 103.964844 286.984375 103.765625 286.851562 103.000000 C 287.250000 101.601562 287.816406 100.234375 288.550781 98.898438 C 290.714844 94.867188 291.500000 92.332031 290.898438 91.300781 C 290.332031 90.300781 287.667969 89.550781 282.898438 89.050781 C 265.367188 86.351562 247.167969 85.632812 228.300781 86.898438 C 233.035156 84.898438 237.351562 83.832031 241.250000 83.699219 C 245.316406 83.066406 249.433594 82.683594 253.601562 82.550781 C 260.265625 82.183594 266.933594 82.015625 273.601562 82.050781 C 280.265625 82.082031 286.898438 82.832031 293.500000 84.300781 C 296.332031 84.601562 298.214844 83.500000 299.148438 81.000000 C 308.382812 66.867188 320.367188 55.683594 335.101562 47.449219 C 343.734375 42.250000 353.101562 40.234375 363.199219 41.398438 C 365.300781 41.667969 367.132812 42.265625 368.699219 43.199219 C 370.300781 44.132812 371.148438 45.851562 371.250000 48.351562 C 371.183594 50.984375 370.300781 52.714844 368.601562 53.550781 C 366.898438 54.351562 365.035156 54.816406 363.000000 54.949219 C 352.867188 55.917969 342.984375 58.066406 333.351562 61.398438 C 321.050781 66.332031 311.167969 74.582031 303.699219 86.148438 C 312.632812 88.816406 320.984375 92.285156 328.750000 96.550781 C 338.417969 102.816406 342.867188 109.800781 342.101562 117.500000 C 341.367188 125.234375 337.785156 131.734375 331.351562 137.000000 C 318.851562 146.464844 304.851562 151.917969 289.351562 153.351562 C 248.851562 158.117188 209.535156 153.234375 171.398438 138.699219 C 163.632812 136.035156 156.964844 131.617188 151.398438 125.449219 C 149.199219 122.917969 147.851562 119.933594 147.351562 116.500000 C 146.851562 113.035156 147.851562 109.917969 150.351562 107.148438 C 150.382812 114.050781 152.316406 119.382812 156.148438 123.148438 C 159.949219 126.917969 164.632812 129.851562 170.199219 131.949219 C 183.867188 137.515625 197.867188 141.398438 212.199219 143.601562 C 226.500000 145.800781 241.000000 146.867188 255.699219 146.800781 C 271.699219 147.300781 287.117188 144.582031 301.949219 138.648438 C 308.882812 135.917969 314.949219 131.882812 320.148438 126.550781 C 327.750000 118.117188 327.332031 110.132812 318.898438 102.601562 C 314.000000 98.734375 308.601562 95.785156 302.699219 93.750000 C 300.101562 92.683594 298.332031 93.433594 297.398438 96.000000 C 296.066406 99.566406 293.550781 101.816406 289.851562 102.750000 C 289.382812 103.050781 288.917969 103.332031 288.449219 103.601562 "/>
    <path style="stroke:none;fill-rule:evenodd;fill:rgb(65.490196%,79.607843%,27.843137%);fill-opacity:1" d="M 208.500000 82.101562 C 205.367188 81.898438 203.464844 83.398438 202.800781 86.601562 C 202.332031 88.500000 203.000000 90.066406 204.800781 91.300781 C 205.566406 89.667969 206.984375 88.933594 209.050781 89.101562 C 211.082031 89.300781 212.250000 88.234375 212.550781 85.898438 C 212.582031 83.398438 211.234375 82.132812 208.500000 82.101562 M 162.351562 92.449219 C 163.148438 93.082031 163.750000 93.816406 164.148438 94.648438 C 164.515625 95.484375 165.234375 96.117188 166.300781 96.550781 C 166.367188 90.550781 166.832031 84.632812 167.699219 78.800781 C 169.300781 72.464844 172.132812 67.250000 176.199219 63.148438 C 180.265625 59.015625 185.167969 56.500000 190.898438 55.601562 C 197.265625 54.898438 201.648438 57.316406 204.050781 62.851562 C 205.515625 66.648438 204.750000 69.851562 201.750000 72.449219 C 199.316406 75.015625 196.082031 75.250000 192.050781 73.148438 C 192.117188 72.449219 192.449219 72.214844 193.050781 72.449219 C 196.582031 72.449219 198.667969 70.714844 199.300781 67.250000 C 199.500000 65.250000 198.683594 63.933594 196.851562 63.300781 C 193.351562 62.101562 190.515625 62.949219 188.351562 65.851562 C 185.515625 69.550781 185.050781 73.683594 186.949219 78.250000 C 188.015625 80.683594 188.917969 83.214844 189.648438 85.851562 C 190.351562 88.515625 191.535156 91.082031 193.199219 93.550781 C 194.066406 89.417969 195.667969 85.851562 198.000000 82.851562 C 200.964844 78.949219 204.898438 77.250000 209.800781 77.750000 C 214.765625 78.582031 217.035156 81.433594 216.601562 86.300781 C 215.800781 91.066406 213.000000 93.035156 208.199219 92.199219 C 207.734375 92.132812 206.683594 91.898438 205.050781 91.500000 C 207.683594 95.167969 208.417969 97.464844 207.250000 98.398438 C 206.117188 99.332031 204.050781 99.617188 201.050781 99.250000 C 200.351562 99.351562 199.632812 99.566406 198.898438 99.898438 C 193.300781 101.398438 189.550781 101.617188 187.648438 100.550781 C 185.714844 99.449219 183.582031 95.882812 181.250000 89.851562 C 180.515625 91.617188 180.582031 93.199219 181.449219 94.601562 C 182.449219 98.035156 182.667969 100.101562 182.101562 100.800781 C 181.535156 101.535156 179.449219 101.785156 175.851562 101.550781 C 174.617188 101.484375 173.367188 101.582031 172.101562 101.851562 C 176.433594 103.148438 180.882812 103.515625 185.449219 102.949219 C 191.417969 102.285156 197.300781 102.167969 203.101562 102.601562 C 208.933594 103.035156 214.515625 104.933594 219.851562 108.300781 C 223.683594 110.601562 226.398438 114.433594 228.000000 119.800781 C 219.667969 115.199219 211.183594 112.199219 202.550781 110.800781 C 193.917969 109.433594 185.167969 109.082031 176.300781 109.750000 C 180.066406 110.851562 183.882812 111.500000 187.750000 111.699219 C 191.648438 111.867188 195.515625 112.214844 199.351562 112.750000 C 204.449219 113.515625 209.367188 114.667969 214.101562 116.199219 C 218.867188 117.699219 223.300781 120.132812 227.398438 123.500000 C 230.699219 126.167969 230.484375 128.332031 226.750000 130.000000 C 221.316406 132.800781 215.800781 134.300781 210.199219 134.500000 C 204.566406 134.699219 198.898438 134.132812 193.199219 132.800781 C 185.800781 131.300781 178.933594 128.382812 172.601562 124.050781 C 167.535156 120.417969 164.082031 115.800781 162.250000 110.199219 C 160.417969 104.601562 160.449219 98.683594 162.351562 92.449219 "/>
    <path style="stroke:none;fill-rule:evenodd;fill:rgb(65.490196%,79.607843%,27.843137%);fill-opacity:1" d="M 271.601562 136.550781 C 269.167969 137.484375 266.898438 137.199219 264.800781 135.699219 C 257.332031 132.734375 251.183594 127.964844 246.351562 121.398438 C 244.648438 118.867188 242.714844 116.351562 240.550781 113.851562 C 238.417969 111.351562 235.566406 109.167969 232.000000 107.300781 C 237.535156 114.167969 242.398438 120.500000 246.601562 126.300781 C 251.433594 132.464844 257.582031 136.765625 265.050781 139.199219 C 261.316406 139.832031 257.683594 140.082031 254.148438 139.949219 C 250.582031 139.785156 247.199219 138.601562 244.000000 136.398438 C 242.167969 134.933594 240.750000 135.250000 239.750000 137.351562 C 237.285156 141.683594 233.535156 143.683594 228.500000 143.351562 C 225.898438 143.082031 224.316406 141.734375 223.750000 139.300781 C 223.417969 137.800781 223.882812 136.667969 225.148438 135.898438 C 226.015625 135.535156 226.484375 135.632812 226.550781 136.199219 C 226.648438 136.800781 226.785156 137.316406 226.949219 137.750000 C 227.750000 138.917969 228.714844 139.214844 229.851562 138.648438 C 231.316406 137.449219 231.464844 136.148438 230.300781 134.750000 C 228.332031 132.382812 228.632812 130.234375 231.199219 128.300781 C 233.433594 126.632812 235.183594 126.949219 236.449219 129.250000 C 232.851562 114.582031 223.867188 104.851562 209.500000 100.050781 C 218.464844 98.882812 227.199219 98.785156 235.699219 99.750000 C 244.167969 100.714844 252.300781 103.515625 260.101562 108.148438 C 264.832031 111.117188 268.566406 115.015625 271.300781 119.851562 C 274.167969 125.382812 274.250000 130.964844 271.550781 136.601562 L 271.601562 136.550781 "/>
    <path style="stroke:none;fill-rule:evenodd;fill:rgb(65.490196%,79.607843%,27.843137%);fill-opacity:1" d="M 288.449219 103.648438 C 288.917969 103.351562 289.382812 103.066406 289.851562 102.800781 C 293.515625 102.699219 297.234375 102.648438 301.000000 102.648438 C 304.765625 102.648438 308.515625 103.851562 312.250000 106.250000 C 307.984375 109.417969 304.234375 113.082031 301.000000 117.250000 C 297.734375 121.417969 293.449219 124.484375 288.148438 126.449219 C 284.816406 127.250000 281.500000 127.617188 278.199219 127.550781 C 276.867188 127.648438 276.050781 127.066406 275.750000 125.800781 C 274.285156 120.601562 271.734375 115.867188 268.101562 111.601562 C 269.234375 110.800781 270.550781 110.332031 272.050781 110.199219 C 273.515625 110.101562 275.066406 109.300781 276.699219 107.800781 C 272.234375 109.601562 268.398438 109.816406 265.199219 108.449219 C 262.035156 107.082031 258.964844 105.316406 256.000000 103.148438 C 265.199219 101.882812 270.832031 100.515625 272.898438 99.050781 C 274.964844 97.617188 274.765625 95.183594 272.300781 91.750000 C 275.933594 90.683594 278.648438 91.750000 280.449219 94.949219 C 281.714844 97.382812 281.933594 99.667969 281.101562 101.800781 C 280.265625 103.933594 279.000000 106.101562 277.300781 108.300781 C 281.898438 108.199219 285.617188 106.648438 288.449219 103.648438 "/>
    <path style="stroke:none;fill-rule:evenodd;fill:rgb(40.000000%,64.705882%,57.647059%);fill-opacity:1" d="M 185.601562 146.398438 C 197.300781 150.566406 208.964844 154.351562 220.601562 157.750000 C 232.199219 161.183594 243.898438 163.050781 255.699219 163.351562 C 267.464844 163.683594 279.500000 161.300781 291.800781 156.199219 C 285.132812 161.398438 277.734375 164.515625 269.601562 165.550781 C 247.699219 169.382812 226.167969 167.949219 205.000000 161.250000 C 196.734375 159.250000 190.265625 154.300781 185.601562 146.398438 "/>
    <path style="stroke:none;fill-rule:evenodd;fill:rgb(65.490196%,79.607843%,27.843137%);fill-opacity:1" d="M 271.550781 136.601562 C 273.183594 136.800781 274.082031 136.398438 274.250000 135.398438 C 274.449219 134.398438 274.667969 133.449219 274.898438 132.550781 C 275.132812 131.750000 275.332031 130.917969 275.500000 130.050781 C 275.667969 129.183594 276.300781 128.765625 277.398438 128.800781 C 282.632812 128.734375 287.816406 128.250000 292.949219 127.351562 C 295.382812 127.351562 297.265625 128.398438 298.601562 130.500000 C 299.566406 131.667969 299.851562 132.882812 299.449219 134.148438 C 298.917969 135.082031 298.382812 135.332031 297.851562 134.898438 C 297.316406 134.500000 296.785156 134.183594 296.250000 133.949219 C 293.582031 133.714844 291.382812 134.515625 289.648438 136.351562 C 285.917969 139.082031 281.734375 140.382812 277.101562 140.250000 C 274.265625 140.316406 272.433594 139.082031 271.601562 136.550781 C 271.601562 136.550781 271.582031 136.566406 271.550781 136.601562 "/>
    <path style="stroke:none;fill-rule:evenodd;fill:rgb(65.490196%,79.607843%,27.843137%);fill-opacity:1" d="M 237.949219 99.000000 C 239.882812 97.933594 241.898438 97.316406 244.000000 97.148438 C 246.132812 96.949219 248.000000 96.148438 249.601562 94.750000 C 250.167969 94.183594 250.250000 93.535156 249.851562 92.800781 C 248.917969 92.199219 248.199219 92.449219 247.699219 93.550781 C 247.167969 94.648438 246.417969 94.714844 245.449219 93.750000 C 244.785156 92.949219 244.632812 92.082031 245.000000 91.148438 C 245.964844 89.015625 247.601562 87.984375 249.898438 88.050781 C 254.265625 88.351562 256.382812 90.667969 256.250000 95.000000 C 256.382812 99.234375 254.265625 101.066406 249.898438 100.500000 C 246.132812 99.898438 242.148438 99.398438 237.949219 99.000000 "/>
    <path style="stroke:none;fill-rule:evenodd;fill:rgb(65.490196%,79.607843%,27.843137%);fill-opacity:1" d="M 223.199219 97.351562 C 222.367188 97.382812 221.535156 97.332031 220.699219 97.199219 C 219.832031 97.035156 219.464844 96.132812 219.601562 94.500000 C 219.898438 90.867188 221.800781 88.984375 225.300781 88.851562 C 226.433594 88.882812 227.398438 89.214844 228.199219 89.851562 C 228.964844 90.515625 229.117188 91.285156 228.648438 92.148438 C 228.148438 93.214844 227.632812 94.398438 227.101562 95.699219 C 226.601562 97.000000 225.300781 97.550781 223.199219 97.351562 "/>
    <path style="stroke:none;fill-rule:evenodd;fill:rgb(98.823529%,98.823529%,98.039216%);fill-opacity:1" d="M 208.449219 82.101562 C 211.214844 82.132812 212.582031 83.398438 212.550781 85.898438 C 212.250000 88.234375 211.082031 89.300781 209.050781 89.101562 C 206.984375 88.933594 205.566406 89.667969 204.800781 91.300781 C 203.000000 90.066406 202.332031 88.500000 202.800781 86.601562 C 203.433594 83.398438 205.316406 81.898438 208.449219 82.101562 "/>
    <path style="stroke:none;fill-rule:evenodd;fill:rgb(91.764706%,14.901961%,15.294118%);fill-opacity:1" d="M 209.949219 129.898438 L 235.250000 136.000000 C 235.851562 135.765625 236.832031 134.035156 238.199219 130.800781 C 239.601562 127.535156 237.882812 124.300781 233.050781 121.101562 C 227.382812 118.464844 222.214844 118.367188 217.550781 120.800781 C 212.851562 123.234375 210.316406 126.265625 209.949219 129.898438 "/>
    <path style="stroke:none;fill-rule:evenodd;fill:rgb(90.588235%,37.647059%,14.509804%);fill-opacity:1" d="M 215.101562 128.000000 C 215.234375 127.632812 216.515625 126.683594 218.949219 125.148438 C 221.417969 123.617188 224.332031 123.632812 227.699219 125.199219 C 230.734375 127.234375 232.234375 129.066406 232.199219 130.699219 C 232.167969 132.367188 232.035156 133.234375 231.800781 133.300781 C 232.265625 133.035156 233.066406 131.550781 234.199219 128.851562 C 235.332031 126.183594 233.964844 123.949219 230.101562 122.148438 C 225.667969 121.050781 222.082031 121.648438 219.351562 123.949219 C 216.582031 126.214844 215.167969 127.566406 215.101562 128.000000 "/>
    <path style="stroke:none;fill-rule:evenodd;fill:rgb(91.764706%,14.901961%,15.294118%);fill-opacity:1" d="M 234.449219 101.500000 L 259.750000 107.601562 C 260.351562 107.367188 261.332031 105.632812 262.699219 102.398438 C 264.101562 99.132812 262.382812 95.898438 257.550781 92.699219 C 251.882812 90.066406 246.714844 89.964844 242.050781 92.398438 C 237.351562 94.832031 234.816406 97.867188 234.449219 101.500000 "/>
    <path style="stroke:none;fill-rule:evenodd;fill:rgb(90.588235%,37.647059%,14.509804%);fill-opacity:1" d="M 239.550781 99.601562 C 239.683594 99.234375 240.964844 98.285156 243.398438 96.750000 C 245.867188 95.214844 248.785156 95.234375 252.148438 96.800781 C 255.183594 98.832031 256.683594 100.667969 256.648438 102.300781 C 256.617188 103.964844 256.484375 104.832031 256.250000 104.898438 C 256.714844 104.632812 257.515625 103.148438 258.648438 100.449219 C 259.785156 97.785156 258.417969 95.550781 254.550781 93.750000 C 250.117188 92.648438 246.535156 93.250000 243.800781 95.550781 C 241.035156 97.816406 239.617188 99.167969 239.550781 99.601562 "/>
    <path style="stroke:none;fill-rule:evenodd;fill:rgb(91.764706%,14.901961%,15.294118%);fill-opacity:1" d="M 257.300781 125.699219 L 282.648438 131.800781 C 283.214844 131.566406 284.183594 129.832031 285.550781 126.601562 C 286.949219 123.332031 285.234375 120.101562 280.398438 116.898438 C 274.734375 114.265625 269.566406 114.167969 264.898438 116.601562 C 260.199219 119.035156 257.667969 122.066406 257.300781 125.699219 "/>
    <path style="stroke:none;fill-rule:evenodd;fill:rgb(90.588235%,37.647059%,14.509804%);fill-opacity:1" d="M 262.398438 123.851562 C 262.535156 123.484375 263.816406 122.535156 266.250000 121.000000 C 268.714844 119.464844 271.632812 119.484375 275.000000 121.050781 C 278.035156 123.082031 279.535156 124.917969 279.500000 126.550781 C 279.464844 128.214844 279.332031 129.082031 279.101562 129.148438 C 279.566406 128.882812 280.367188 127.398438 281.500000 124.699219 C 282.632812 122.035156 281.265625 119.800781 277.398438 118.000000 C 272.964844 116.898438 269.382812 117.500000 266.648438 119.800781 C 263.882812 122.066406 262.464844 123.417969 262.398438 123.851562 "/>
  </g>
  <g id="surface4">
  </g>
</svg> 
